ST 558 Project 1
…
class(statedata) <- c("state", class(statedata))
countydata

# A tibble: 31,450 × 7
   area_name     STCOU varcode     vals  year measure state
   <chr>         <chr> <chr>      <dbl> <dbl> <chr>   <chr>
 1 Abbeville, SC 45001 EDU010187D  3941  1987 EDU0101 SC   
 2 Abbeville, SC 45001 EDU010188D  3934  1988 EDU0101 SC   
 3 Abbeville, SC 45001 EDU010189D  3880  1989 EDU0101 SC   
 4 Abbeville, SC 45001 EDU010190D  3834  1990 EDU0101 SC   
 5 Abbeville, SC 45001 EDU010191D  3806  1991 EDU0101 SC   
 6 Abbeville, SC 45001 EDU010192D  3780  1992 EDU0101 SC   
 7 Abbeville, SC 45001 EDU010193D  3804  1993 EDU0101 SC   
 8 Abbeville, SC 45001 EDU010194D  3750  1994 EDU0101 SC   
 9 Abbeville, SC 45001 EDU010195D  3780  1995 EDU0101 SC   
10 Abbeville, SC 45001 EDU010196D  3803  1996 EDU0101 SC   
# ℹ 31,440 more rows

statedata

# A tibble: 530 × 7
   area_name STCOU varcode      vals  year measure division
   <chr>     <chr> <chr>       <dbl> <dbl> <chr>   <chr>   
 1 ALABAMA   01000 EDU010187D 733735  1987 EDU0101 6       
 2 ALABAMA   01000 EDU010188D 728234  1988 EDU0101 6       
 3 ALABAMA   01000 EDU010189D 730048  1989 EDU0101 6       
 4 ALABAMA   01000 EDU010190D 728252  1990 EDU0101 6       
 5 ALABAMA   01000 EDU010191D 725541  1991 EDU0101 6       
 6 ALABAMA   01000 EDU010192D 726150  1992 EDU0101 6       
 7 ALABAMA   01000 EDU010193D 728014  1993 EDU0101 6       
 8 ALABAMA   01000 EDU010194D 730509  1994 EDU0101 6       
 9 ALABAMA   01000 EDU010195D 727989  1995 EDU0101 6       
10 ALABAMA   01000 EDU010196D 736825  1996 EDU0101 6       
# ℹ 520 more rows
…
Put it Together

Now that we have developed all of our functions, we can make sure they work correctly and run them in the same location. First, we run the functions to process and create a final combined dataset out for the EDU01a and EDU01b CSV files.

finalCombo <- combine_datasets(results1 = my_wrapper("https://www4.stat.ncsu.edu/~online/datasets/EDU01a.csv"), results2 = my_wrapper("https://www4.stat.ncsu.edu/~online/datasets/EDU01b.csv"))
finalCombo

$countyData
# A tibble: 62,900 × 7
   area_name     STCOU varcode    enrollment  year measure state
   <chr>         <chr> <chr>           <dbl> <dbl> <chr>   <chr>
 1 Abbeville, SC 45001 EDU010187D       3941  1987 EDU0101 SC   
 2 Abbeville, SC 45001 EDU010188D       3934  1988 EDU0101 SC   
 3 Abbeville, SC 45001 EDU010189D       3880  1989 EDU0101 SC   
 4 Abbeville, SC 45001 EDU010190D       3834  1990 EDU0101 SC   
 5 Abbeville, SC 45001 EDU010191D       3806  1991 EDU0101 SC   
 6 Abbeville, SC 45001 EDU010192D       3780  1992 EDU0101 SC   
 7 Abbeville, SC 45001 EDU010193D       3804  1993 EDU0101 SC   
 8 Abbeville, SC 45001 EDU010194D       3750  1994 EDU0101 SC   
 9 Abbeville, SC 45001 EDU010195D       3780  1995 EDU0101 SC   
10 Abbeville, SC 45001 EDU010196D       3803  1996 EDU0101 SC   
# ℹ 62,890 more rows

$stateData
# A tibble: 1,040 × 7
   area_name STCOU varcode    enrollment  year measure division
   <chr>     <chr> <chr>           <dbl> <dbl> <chr>   <chr>   
 1 ALABAMA   01000 EDU010187D     733735  1987 EDU0101 6       
 2 ALABAMA   01000 EDU010188D     728234  1988 EDU0101 6       
 3 ALABAMA   01000 EDU010189D     730048  1989 EDU0101 6       
 4 ALABAMA   01000 EDU010190D     728252  1990 EDU0101 6       
 5 ALABAMA   01000 EDU010191D     725541  1991 EDU0101 6       
 6 ALABAMA   01000 EDU010192D     726150  1992 EDU0101 6       
 7 ALABAMA   01000 EDU010193D     728014  1993 EDU0101 6       
 8 ALABAMA   01000 EDU010194D     730509  1994 EDU0101 6       
 9 ALABAMA   01000 EDU010195D     727989  1995 EDU0101 6       
10 ALABAMA   01000 EDU010196D     736825  1996 EDU0101 6       
# ℹ 1,030 more rows
…
first_new_URL <- my_wrapper(url="https://www4.stat.ncsu.edu/~online/datasets/PST01a.csv")
second_new_URL <- my_wrapper(url="https://www4.stat.ncsu.edu/~online/datasets/PST01b.csv")
third_new_URL <- my_wrapper(url="https://www4.stat.ncsu.edu/~online/datasets/PST01c.csv")
fourth_new_URL <- my_wrapper(url="https://www4.stat.ncsu.edu/~online/datasets/PST01d.csv")

combine1 <- combine_datasets(results1 = first_new_URL, results2 = second_new_URL)

combine2 <- combine_datasets(results1 = combine1, results2 = third_new_URL)

combine3 <- combine_datasets(results1 = combine2, results2 = fourth_new_URL)
combine3

$countyData
# A tibble: 125,800 × 7
   area_name     STCOU varcode    enrollment  year measure state
   <chr>         <chr> <chr>           <dbl> <dbl> <chr>   <chr>
 1 Abbeville, SC 45001 PST015171D      21506  1971 PST0151 SC   
 2 Abbeville, SC 45001 PST015172D      21544  1972 PST0151 SC   
 3 Abbeville, SC 45001 PST015173D      21623  1973 PST0151 SC   
 4 Abbeville, SC 45001 PST015174D      21860  1974 PST0151 SC   
 5 Abbeville, SC 45001 PST015175D      22061  1975 PST0151 SC   
 6 Abbeville, SC 45001 PST015176D      22245  1976 PST0151 SC   
 7 Abbeville, SC 45001 PST015177D      22637  1977 PST0151 SC   
 8 Abbeville, SC 45001 PST015178D      22933  1978 PST0151 SC   
 9 Abbeville, SC 45001 PST015179D      22873  1979 PST0151 SC   
10 Abbeville, SC 45001 PST025181D      22788  1981 PST0251 SC   
# ℹ 125,790 more rows

$stateData
# A tibble: 2,080 × 7
   area_name STCOU varcode    enrollment  year measure division
   <chr>     <chr> <chr>           <dbl> <dbl> <chr>   <chr>   
 1 ALABAMA   01000 PST015171D    3497452  1971 PST0151 6       
 2 ALABAMA   01000 PST015172D    3540080  1972 PST0151 6       
 3 ALABAMA   01000 PST015173D    3580769  1973 PST0151 6       
 4 ALABAMA   01000 PST015174D    3627805  1974 PST0151 6       
 5 ALABAMA   01000 PST015175D    3680533  1975 PST0151 6       
 6 ALABAMA   01000 PST015176D    3737204  1976 PST0151 6       
 7 ALABAMA   01000 PST015177D    3782736  1977 PST0151 6       
 8 ALABAMA   01000 PST015178D    3834120  1978 PST0151 6       
 9 ALABAMA   01000 PST015179D    3869444  1979 PST0151 6       
10 ALABAMA   01000 PST025181D    3918526  1981 PST0251 6       
# ℹ 2,070 more rows
…
